{
  "project_info": {
    "project_number": "1008282189141",
    "firebase_url": "https://jda-sbr-85b4e.firebaseio.com",
    "project_id": "jda-sbr-85b4e",
    "storage_bucket": "jda-sbr-85b4e.appspot.com"
  },
  "client": [
    {
      "client_info": {
        "mobilesdk_app_id": "1:1008282189141:android:9c32666ff35865e3",
        "android_client_info": {
          "package_name": "sbr.m15.dam.local.sportbarradar"
        }
      },
      "oauth_client": [
        {
          "client_id": "1008282189141-s6gt7j3rd7tikgafeurjd40derhl261o.apps.googleusercontent.com",
          "client_type": 1,
          "android_info": {
            "package_name": "sbr.m15.dam.local.sportbarradar",
            "certificate_hash": "d5dd3e65b417a7e8fe15bbda06292c603ecd0b29"
          }
        },
        {
          "client_id": "1008282189141-28ce45sflmccb1alf5gqlo5okon9ve0s.apps.googleusercontent.com",
          "client_type": 1,
          "android_info": {
            "package_name": "sbr.m15.dam.local.sportbarradar",
            "certificate_hash": "89578cd7fb7bfe797d4c0815b2206217f4989539"
          }
        },
        {
          "client_id": "1008282189141-v18dmcrav1d75ukb2e5oqdco4s1q9tv3.apps.googleusercontent.com",
          "client_type": 3
        }
      ],
      "api_key": [
        {
          "current_key": "AIzaSyCiP5O7jopDpNelguvaKL5A4vVYgMRgQO4"
        }
      ],
      "services": {
        "analytics_service": {
          "status": 1
        },
        "appinvite_service": {
          "status": 2,
          "other_platform_oauth_client": [
            {
              "client_id": "1008282189141-v18dmcrav1d75ukb2e5oqdco4s1q9tv3.apps.googleusercontent.com",
              "client_type": 3
            }
          ]
        },
        "ads_service": {
          "status": 2
        }
      }
    }
  ],
  "configuration_version": "1"
}